Case Study
…
0.0499333

27.40000

15

#summary table for bubble graph/map
bb<-brewcomb_type %>% group_by(BeerStyle, lat, long) %>% summarize(meanabv = mean(ABV), meanIBU = mean(IBU), beers = n()) %>% arrange(desc(beers))

## `summarise()` has grouped output by 'BeerStyle', 'lat'. You can override using
## the `.groups` argument.

bb

## # A tibble: 643 x 6
## # Groups:   BeerStyle, lat [614]
##    BeerStyle      lat   long meanabv meanIBU beers
##    <chr>        <dbl>  <dbl>   <dbl>   <dbl> <int>
##  1 American Ale  40.3 -106.   0.0639    54.0    22
##  2 American Ale  45.6 -122.   0.0469    32.8    20
##  3 American IPA  33.5 -118.   0.0719    75.7    17
##  4 American IPA  40.3 -106.   0.0796    70.1    15
##  5 American Ale  33.5 -118.   0.059     46.8    12
##  6 American Ale  47.6 -121.   0.0547    33.4    12
##  7 American IPA  28.2  -82.7  0.0707    66.3    12
##  8 American IPA  34.8 -119.   0.0745    71.1    11
##  9 American IPA  47.6 -121.   0.0593    59.5    11
## 10 Ale           39.6  -86.3  0.0724    25.8    10
## # ... with 633 more rows
…
## Warning in image_write(., "FileName.gif"): Writing image with 0 frames

#ipa mapping
ipa<-brewcomb_type%>% filter(BeerStyle=="American IPA") %>% group_by(BeerStyle, lat, long) %>% summarize(meanabv = mean(ABV), meanIBU = mean(IBU), beers = n()) %>% arrange(desc(beers))

## `summarise()` has grouped output by 'BeerStyle', 'lat'. You can override using
## the `.groups` argument.

ipa

## # A tibble: 149 x 6
## # Groups:   BeerStyle, lat [140]
##    BeerStyle      lat   long meanabv meanIBU beers
##    <chr>        <dbl>  <dbl>   <dbl>   <dbl> <int>
##  1 American IPA  33.5 -118.   0.0719    75.7    17
##  2 American IPA  40.3 -106.   0.0796    70.1    15
##  3 American IPA  28.2  -82.7  0.0707    66.3    12
##  4 American IPA  34.8 -119.   0.0745    71.1    11
##  5 American IPA  47.6 -121.   0.0593    59.5    11
##  6 American IPA  39.6  -86.3  0.0695    81.1     8
##  7 American IPA  37.7 -122.   0.0696    63.7     7
##  8 American IPA  40.6  -73.9  0.0729    76.9     7
##  9 American IPA  42.7  -71.9  0.058     55.4     7
## 10 American IPA  44.8  -93.3  0.0696    84       7
## # ... with 139 more rows
…
